{
	"Continual_global_variable": {
		"gcp_project" : "vf-continual-nwp-nonlive",
		"gcp_zone" : "europe-west3-b"
	},
	"Continual_VF_DE_final_vf_de_dataproc_cycle_general": {
  "ENRICHMENT_JAR": "gs://vf-continual-nwp-nonlive-qa/jars/processing-enrichment-5.5.RC1-jar-with-dependencies.jar",
  "MOBILITY_JAR": "gs://vf-continual-nwp-nonlive-qa/jars/processing-mobility-5.5.1-gcp-jar-with-dependencies.jar",
  "AGGS_JAR": "gs://vf-continual-nwp-nonlive-qa/jars/processing-aggs-5.5.RC1-jar-with-dependencies.jar",
  "PARSING_JAR": "gs://vf-continual-nwp-nonlive-qa/jars/processing-parser-5.5.RC1-jar-with-dependencies.jar",
  "VALIDATION_JAR": "gs://vf-continual-nwp-nonlive-qa/jars/processing-validation-5.5-SNAPSHOT-jar-with-dependencies.jar",
  "ENRICHMENT_MAIN_CLASS": "com.continual.sonata.Processing.Enrichment.Host.Host",
  "MOBILITY_MAIN_CLASS": "com.continual.sonata.Mobility.Processing.Host.Host",
  "AGGS_MAIN_CLASS": "com.continual.sonata.processing.host.Host",
  "PARSING_MAIN_CLASS": "com.continual.sonata.processing.parser.host.Host",
  "MOBILITY_PRE_PROCESS_MAIN_CLASS": "com.continual.sonata.Mobility.PreProcessing.Host.Host",
  "VALIDATION_MAIN_CLASS": "com.continual.sonata.processing.host.Host",
  "CLUSTER_NAME": "continual-mea-cluster-{{ ds_nodash }}",
  "customer": "rain_main,nord,sud_west,west,sud,nord_ost,nord_west,ost",
  "home_folder": "gs://vf-continual-nwp-nonlive-qa//",
  "auto_delete_duration": 14400,
  "flow_configuration_file": "data/configuration.json",
  "composer_bucket_name": "europe-west3-composer-dev-58ecbca1-bucket"


	},
    "Continual_VF_DE_final_vf_de_dataproc_cycle_delta" : 0 ,
	"Continual_VF_DE_final_vf_de_dataproc_cycle_phase" : 0 ,
	"Continual_VF_DE_final_vf_de_dataproc_cycle_prev_phase" : 0 ,
	"Continual_VF_DE_final_vf_de_dataproc_cycle_working_day" : "2020-07-15",
	"Continual_VF_DE_final_vf_de_dataproc_cycle" : "2022-01-01",
	"Continual_VF_DE_final_vf_de_dataproc_cycle_is_triggered_dag_running" : "False",
	"Continual_VF_DE_final_vf_de_dataproc_cycle_working_hour_internal": " ",
    "Continual_VF_DE_final_vf_de_dataproc_cycle_working_date_internal": " ",
	"Continual_VF_DE_final_vf_de_dataproc_cycle_working_hour_shift_internal" : " "
}
