{
  "timezone": 32,
  "enrichment": {
    "gen1_duration_minutes": 30,
    "gen2_duration_minutes": 120,
    "data_types": [
		101,
		106,
        1,
        2,
        5,
        6,
		301,
		302,
		303
    ],
    "data_customization": "",
    "cdr_schema": 1,
    "read_lsrs": true,
    "impacts": {
      "max_time_for_impact_seconds": 60
    },
    "lq": {
      "max_time_between_calls_minutes": 2,
      "min_call_duration_seconds": 4,
      "max_call_duration_seconds": 1800
    },
    "tags": [
      {
        "name": "morning",
        "start_day": 1,
        "end_day": 7,
        "start_hour": 9,
        "end_hour": 12
      },
      {
        "name": "evening",
        "start_day": 1,
        "end_day": 7,
        "start_hour": 19,
        "end_hour": 23
      }
    ],
    "cell_tags": {
      "max_history_days": 60,
      "static_sites_percentage": 10,
      "static_sites_min_number": 10,
      "static_sites_take": 4
    },
    "subscribers": {
      "resolve_by_cleanmsisdn": false
    }
  },
  "mobility_pre_processing": {
    "debug": false,
    "candidates_baseline": false,
    "tiles_output": "",
    "samples_diff_time": 300,
    "transitions_iterations": 40,
    "max_speed": 120,
    "max_rank": -1,
    "candidates_ranks": [
        -1,
        3
    ],
    "max_transition_duration": 300,
    "max_cell_id" : 500000,
    "ne_lat": -1,
    "ne_lon": -1,
    "sw_lat": -1,
    "sw_lon": -1
  },
  "mobility_processing": {
    "debug": false,
    "imsi": "-1",
    "imsi_modulo": 1,
    "imsi_modulo_reminder": 0,
    "policies": [{"recordType": -1, "subRecordType": -1, "instruction": 3, "accuracy": 0, "skipDuplicates": false}],
    "max_routes_in_partition": 50000,
    "max_total_routes": 500000,
    "cell_to_rank": "gis/cell_rank.txt",
    "cell_default_rank": 3,
    "max_time_between_events": 300000,
    "max_time_between_events_long_cells": 600000,
    "min_steps_in_route": 5,
    "min_distinct_assets_in_route": 5,
    "threshold": 5000,
    "candidates_learning": {
      "inc_cells": true,
      "inc_radius": 1000,
      "history_weight": 0.8,
      "dec_threshold": 0.2,
      "calc_bootstrap": false,
      "bootstrap_iters": 100
    },
    "blacklist": [
        "1"
    ]
  },
  "aggs": {

  }
}