{
    "gis_path": "gis/gis.txt",
    "run_local": "false",
    "use_hdfs": true,
    "hdfs_uri": "gs://vf-continual-nwp-nonlive-qa//",
    "data_path": "gs://vf-continual-nwp-nonlive-qa//data//",
    "intermediate_data_path": "gs://vf-continual-nwp-nonlive-qa//data//",
    "save_type": "parquet",
    "db_address": "",
    "db_user": "",
    "db_pwd": "",
    "db_batch_size": 10000,
    "orchestration_url": "",
    "heartbeat_thread_interval": 60000,
    "jobs_thread_interval": 60000,
    "checkpoint_path": "checkpoint",
    "elk_host": "",
    "elk_index_name": "",
    "elk_type_name": "",
    "elk_port": 9200,
    "elk_log_level": "none",
    "hbase_config": {
		"gcp_project_id":"vf-continual-nwp-nonlive",
		"gcp_instance_id" : "bt-instance-cont-nonlive",
        "hbase_read_batch_size": 10000,
        "regions_number": 6,
        "hbase_tables_prefix": "sud_west_",
        "hbase_tables": {
            "candidates": "candidates",
            "cells": "cells",
            "from_transitions": "from_transitions",
            "segments": "segments",
            "segments_map": "segments_map",
            "super_segments": "super_segments",
            "super_segments_transitions": "super_segments_transitions",
            "tiles": "tiles",
            "transitions_path": "transitions_path"
        }
    },
    "enrichment": {
        "neighbors_path": "gis/neighbors.txt",
        "black_list_path": "blacklist/blacklist.txt",
        "cdrs_path": "cdrs/sud_west/*/cdrs*/",
        "lsrs_path": "cdrs/sud_west/*/lte_*/",
        "use_hive_table": true,
        "hive_prefix": "/half_hour=",
        "hive_format": "",
        "cdrs_extension": "/*",
        "parsed_data_type": "parquet",
        "partitions_number": 200,
        "db_partitions_number": 8
    },
    "mobility": {
        "cell_ids_path" : "gis/",
        "segments_path": "map/*/hsegments.json",
        "nodes_path": "map/*/hnodes.json",
        "save_type": "parquet",
        "map_prepare_partitions_number": 200,
        "prepare_routes_partitions_number": 200,
        "routes_partitions_number": 200,
        "counters_partitions_number": 200,
        "aggs_partitions_number": 200,
        "db_partitions_number": 50
    },
    "agg": {
        "segments_path": "/map/*/hsegments.json",
        "ways_path": "/map/*/hways.json",
        "nodes_path": "/map/*/hnodes.json",
        "segments_to_poly_path": "/map/*/segment2polygons.json",
        "polygons_path": "/map/*/polygons.json",
        "ways_to_poly_path": "/map/*/way2polygons*.json",
        "postgres_address": "",
        "postgres_database": "",
        "postgres_user": "",
        "postgres_password": "",
        "road_data_table": "road_data",
        "zip_data_table": "zip_code_data",
        "city_data_table": "city_data",
        "market_data_table": "market_data",
        "road_daily_percentile_table": "road_daily_percentile",
        "zip_daily_percentile_table": "zip_code_daily_percentile",
        "city_daily_percentile_table": "city_daily_percentile",
        "market_daily_combined_score_table": "market_daily_combined_score",
        "mongo_way_counters_day": "way_counters_day",
        "bulk_size": 10,
        "mongodb_host": "admin:qwe123!%40%23@127.0.0.1",
        "mongodb_database": "mea?authSource=admin",
        "files_type": "parquet",
		"calibration_way_output_partition": 10,
		"calibration_cell_output_partition": 10,
		"compare_calibration_delta_days": 12,
		"save_calibration_result_to_json": true,
		"files_output_type": "json"
    },
    "parser": {
		"configs": {
		  "tmo" : {
			"cdr_data_um_table": "integration.cdr_data_um",
			"cdr_nr_data_table": "staging.cdr_5g_chf",
			"cdr_voice_um_table": "integration.cdr_voice_um",
			"lsr_erc_breadcrumbs_table":  "lsr_erc.lte_erc_breadcrumbs",
			"lsr_nsn_breadcrumbs_table": "lsr_nsn.lte_nsn_breadcrumbs",

			"parsed_all_lsr_events": "true",
			"partitions_to_save_cdr_voice":"101",
			"partitions_to_save_cdr_data":"102",
			"partitions_to_save_lsr_nsn":"103",
			"partitions_to_save_lsr_erc":"104"
		  },
		  "vfde": {
			"cdr_data_vfde_table": "gs://vfde-dh-mob-rawprepared/cdr/sgsn_gprs_usage/1.2/parquet/year=%year%/month=%month%/day=%day%/*.parquet",
			"cdr_voice_vfde_table": "gs://vfde-dh-mob-rawprepared/usage/usage_call_detail/1.0/parquet/year=%year%/month=%month%/day=%day%/*.parquet",
			"acdr_vfde_table": "gs://vfde-dh-mob-rawprepared/cdr/actixone_acdr/1.1/parquet/year=%year%/month=%month%/day=%day%/*.parquet",
			"bda_vfde_table": "gs://vfde-dh-mob-rawprepared/cdr/actixone_bda/1.1/parquet/year=%year%/month=%month%/day=%day%/*.parquet",
			"rfe_vfde_table": "gs://vfde-dh-mob-rawprepared/cdr/actixone_rfe/1.1/parquet/year=%year%/month=%month%/day=%day%/*.parquet",
			"partitions_to_save_acdr":"10",
			"partitions_to_save_bda":"10",
			"partitions_to_save_rfe":"10",
			"partitions_to_save_cdr_voice":"10",
			"partitions_to_save_cdr_data":"10"
		  }
		},
		"partitions_number": -1,
		"moduloFilter": 0,
		"files_type": "parquet",
		"system2MarketMap": [
		  {
			"system": "vf_de",
			"markets": [
			  "f"
			]
		  },
		  {
			"system": "sud_west",
			"markets": [
			  "S"
			]
		  }
		]
	}
}